{
    "uuid": "st-widgets@gjs.guide",
    "name": "St Widgets Example",
    "description": "An example extension with St Widgets",
    "shell-version": [ "45" ],
    "url": "https://gjs.guide/extensions/topics/st-widgets"

}
